<?xml version="1.0" encoding="UTF-8"?>
<!DOCTYPE svg PUBLIC "-//W3C//DTD SVG 1.1//EN" "http://www.w3.org/Graphics/SVG/1.1/DTD/svg11.dtd">
<!-- Creator: CorelDRAW X7 -->
<svg xmlns="http://www.w3.org/2000/svg" xml:space="preserve" width="93.125mm" height="36.148mm" version="1.1" style="shape-rendering:geometricPrecision; text-rendering:geometricPrecision; image-rendering:optimizeQuality; fill-rule:evenodd; clip-rule:evenodd"
viewBox="0 0 9313 3615"
 xmlns:xlink="http://www.w3.org/1999/xlink">
 <defs>
  <style type="text/css">
   <![CDATA[
    .fil0 {fill:#D3AE37}
    .fil1 {fill:#D3AE37;fill-rule:nonzero}
   ]]>
  </style>
 </defs>
 <g id="Layer_x0020_1">
  <metadata id="CorelCorpID_0Corel-Layer"/>
  <g id="_215991300752">
   <path class="fil0" d="M1114 2705l951 0 0 0c168,-1 288,-164 334,-223l0 0c3,-4 5,-8 8,-12l0 0c2,-2 3,-4 5,-6l0 0c4,-7 7,-13 11,-19l0 0c2,-3 4,-8 6,-11l0 0c2,-3 3,-6 4,-8l0 0c13,-26 21,-52 26,-81l0 0c2,-7 2,-13 3,-19l0 0c0,-2 1,-3 1,-4l0 0c1,-19 1,-30 1,-30l0 0c0,-173 -141,-313 -315,-313 -174,0 -315,140 -315,313l0 0c0,3 0,14 2,29l0 0c0,2 0,3 1,5l0 0c0,7 2,14 3,23l0 0c1,3 2,8 2,11l0 0c2,8 4,15 6,23l0 0c1,1 1,2 1,3l0 0c10,30 25,64 49,96l0 0c61,81 12,120 -27,120l0 0 -581 0c-26,-16 -49,-35 -68,-56 -243,-268 -181,-749 -249,-951 -14,-40 -80,-107 -166,-41 -3,3 -8,6 -11,8 -3,2 -4,3 -6,5 -6,3 -12,7 -18,11 -4,1 -7,3 -11,5 -2,1 -5,3 -8,4 -24,11 -50,20 -77,25 -7,1 -13,1 -18,3 -1,0 -3,0 -4,0 -18,1 -29,1 -29,1 -165,0 -298,-133 -298,-298 0,-165 133,-298 298,-298 1,0 1,0 1,0 3,0 12,0 28,2 1,0 3,0 4,0 7,1 14,2 22,3 3,1 7,1 11,3 7,1 14,3 22,5 1,0 1,1 2,1 29,9 61,23 92,46 86,64 150,1 166,-39 64,-171 30,-583 255,-831 41,-45 86,-80 131,-108l512 2c39,0 88,38 27,119l0 0c-24,33 -39,67 -49,97l0 0c0,0 0,1 -1,2l0 0c-2,8 -4,16 -6,23l0 0c0,4 -1,8 -2,12l0 0c-1,8 -3,16 -3,23l0 0c-1,1 -1,2 -1,4l0 0c-2,16 -2,26 -2,29l0 0 0 1c0,173 141,312 315,312 174,0 315,-139 315,-312l0 0c0,0 0,-12 -1,-30l0 0c0,-2 -1,-3 -1,-4l0 0c-1,-6 -1,-13 -3,-19l0 0c-5,-29 -13,-56 -26,-81l0 0c-1,-3 -2,-6 -4,-8l0 0c-2,-4 -4,-8 -6,-12l0 0c-4,-6 -7,-12 -11,-18l0 0c-2,-2 -3,-4 -5,-7l0 0c-3,-4 -5,-8 -8,-12l0 0c-46,-59 -166,-221 -334,-222l0 0 0 0 -1304 0 -5 0 -5 0 -36 0 1 1c-103,5 -306,38 -482,191 -253,221 -235,511 -235,511l0 1397c0,0 1,267 181,432 188,172 474,172 474,172l460 -1 0 1 0 0z"/>
   <path class="fil1" d="M3687 2512c0,35 -13,66 -38,92 -25,25 -56,38 -93,38l-119 0c-37,0 -67,-13 -93,-38 -25,-26 -38,-57 -38,-92l0 -620c0,-37 13,-68 38,-94 26,-27 56,-40 93,-40l250 0 0 754zm357 -1499c-116,-72 -270,-108 -460,-108l-153 0c-72,0 -139,10 -202,28 -2,1 -3,1 -5,1 -250,55 -351,177 -375,208 -19,25 -31,52 -38,76 -1,0 -1,1 -1,2 -2,6 -4,12 -5,18 0,3 -1,6 -2,9 -1,7 -2,13 -3,18 0,2 0,3 0,4 -1,12 -1,21 -1,22 0,1 0,1 0,2 0,36 8,71 23,102 0,0 0,0 0,0l0 0c39,85 125,144 225,144 137,0 248,-111 248,-246 0,0 1,-10 -1,-25 0,0 0,-1 0,-3 -1,-5 -2,-9 -3,-15 -4,-22 -11,-44 -20,-64 -2,-2 -2,-4 -3,-6 -2,-3 -3,-6 -5,-9 -3,-5 -6,-10 -9,-14 -2,-2 -2,-4 -3,-5 -3,-3 -5,-7 -8,-10 -14,-18 -15,-37 -11,-55 1,-2 1,-4 2,-6 1,-2 1,-5 3,-7 1,-4 4,-9 7,-13 7,-13 17,-23 25,-31 36,-24 155,-35 189,-35l96 0c36,0 67,13 93,39 27,27 40,57 40,94l0 540 -278 0c-96,0 -179,6 -249,17 -70,10 -135,29 -197,57 -62,27 -109,67 -140,121 -32,54 -48,121 -48,203l0 271c0,82 16,150 48,203 31,54 78,94 140,121 62,27 127,46 197,57 70,11 153,17 249,17l175 0c96,0 179,-6 249,-17 70,-11 135,-30 197,-57 62,-27 108,-67 141,-121 31,-53 47,-121 47,-203l0 -981c0,-157 -58,-272 -174,-343l0 0z"/>
   <path class="fil1" d="M8781 2512c0,35 -13,66 -39,92 -25,25 -56,38 -92,38l-120 0c-36,0 -67,-13 -93,-38 -25,-26 -37,-57 -37,-92l0 -620c0,-37 12,-68 37,-94 26,-27 57,-40 93,-40l251 0 0 754zm356 -1499c-116,-72 -269,-108 -460,-108l-152 0c-72,0 -140,10 -203,28 -1,1 -3,1 -4,1 -251,55 -352,177 -375,208 -20,25 -32,52 -39,76 0,0 0,1 -1,2 -2,6 -3,12 -4,18 -1,3 -1,6 -2,9 -1,7 -2,13 -3,18 0,2 0,3 0,4 -2,12 -2,21 -2,22 0,1 0,1 0,2 0,36 9,71 23,102 0,0 0,0 0,0l0 0c39,85 126,144 226,144 137,0 248,-111 248,-246 0,0 0,-10 -1,-25 0,0 0,-1 -1,-3 -1,-5 -1,-9 -3,-15 -3,-22 -10,-44 -20,-64 -1,-2 -1,-4 -3,-6 -1,-3 -3,-6 -4,-9 -4,-5 -7,-10 -10,-14 -1,-2 -2,-4 -3,-5 -2,-3 -4,-7 -7,-10 -14,-18 -16,-37 -11,-55 0,-2 1,-4 1,-6 1,-2 2,-5 3,-7 2,-4 5,-9 7,-13 8,-13 17,-23 26,-31 36,-24 155,-35 189,-35l95 0c36,0 68,13 94,39 26,27 40,57 40,94l0 540 -278 0c-96,0 -179,6 -249,17 -70,10 -136,29 -198,57 -62,27 -108,67 -140,121 -32,54 -47,121 -47,203l0 271c0,82 15,150 47,203 32,54 78,94 140,121 62,27 128,46 198,57 70,11 153,17 249,17l174 0c96,0 180,-6 249,-17 70,-11 136,-30 198,-57 61,-27 108,-67 140,-121 32,-53 48,-121 48,-203l0 -981c0,-157 -59,-272 -175,-343l0 0z"/>
   <path class="fil1" d="M5051 1659l251 0c36,0 67,-13 92,-38 26,-26 39,-56 39,-93l0 -566c0,-194 531,-212 531,0 0,64 5,423 -86,530 -94,111 -214,189 -377,227 163,38 297,48 395,153 63,67 68,236 68,396 0,165 0,211 -70,296 -98,122 -300,141 -300,141l-161 0 0 -809c0,-36 -13,-67 -39,-93 -25,-25 -56,-38 -92,-38l-251 0 0 753c0,251 -530,251 -530,-13l0 -163 0 -2115c0,-275 530,-275 530,-12l0 1444z"/>
   <path class="fil1" d="M7606 1287c-1,-1 -1,-2 -1,-3 -1,-5 -1,-10 -3,-16 -3,-22 -10,-43 -20,-63 -1,-2 -2,-5 -3,-7 -1,-3 -3,-6 -4,-9 -4,-5 -7,-9 -10,-14 -1,-2 -2,-3 -3,-5 -3,-3 -4,-7 -8,-10 -15,-21 -97,-157 -262,-222 0,0 0,0 0,0 -51,-29 -102,-36 -205,-36l-175 0c-178,0 -328,56 -451,168 -122,111 -183,249 -183,415l0 1090c0,215 530,215 530,-12l0 -1424c0,-37 14,-67 40,-92 27,-26 58,-39 94,-39l117 0c34,0 64,12 89,35 21,24 49,70 13,117 -20,26 -32,52 -39,77 0,0 -1,0 -1,1 -2,7 -3,13 -5,18 0,3 -1,6 -1,9 -2,7 -2,13 -3,19 0,1 -1,2 -1,3 -1,12 -1,21 -1,23 0,0 0,0 0,1 0,135 111,246 248,246 138,0 249,-111 249,-246 0,0 0,-10 -2,-24l1 0z"/>
  </g>
  <path class="fil1" d="M4166 3238l267 0 0 349c-44,14 -84,24 -123,30 -38,5 -77,8 -117,8 -101,0 -179,-30 -232,-89 -54,-60 -80,-146 -80,-257 0,-109 30,-194 93,-255 62,-60 148,-91 258,-91 69,0 136,14 200,42l-48 114c-49,-25 -100,-37 -153,-37 -62,0 -111,21 -148,62 -37,42 -56,97 -56,167 0,73 15,129 45,168 30,38 74,57 131,57 29,0 60,-3 90,-9l0 -141 -127 0 0 -118z"/>
  <path id="1" class="fil1" d="M4694 3357c0,51 8,90 25,116 16,26 44,39 81,39 38,0 65,-13 81,-39 16,-26 25,-64 25,-116 0,-50 -9,-89 -25,-114 -17,-26 -44,-38 -82,-38 -37,0 -64,12 -80,38 -17,25 -25,63 -25,114zm355 1c0,83 -22,149 -66,196 -44,47 -106,71 -185,71 -49,0 -92,-11 -130,-32 -38,-22 -67,-53 -87,-94 -20,-40 -30,-87 -30,-141 0,-84 21,-150 65,-196 44,-47 106,-70 185,-70 50,0 93,10 131,32 38,21 67,52 87,92 20,41 30,88 30,142z"/>
  <polygon id="2" class="fil1" points="5306,3616 5165,3616 5165,2899 5306,2899 "/>
  <path id="3" class="fil1" d="M5616 3625c-60,0 -108,-23 -143,-70 -34,-47 -51,-112 -51,-196 0,-84 17,-150 52,-197 36,-47 84,-70 146,-70 64,0 114,25 148,75l4 0c-7,-38 -10,-73 -10,-103l0 -165 141 0 0 717 -108 0 -27 -67 -6 0c-32,51 -81,76 -146,76zm49 -112c36,0 62,-10 79,-31 17,-21 26,-57 28,-107l0 -15c0,-55 -9,-94 -26,-119 -17,-23 -45,-35 -83,-35 -31,0 -56,13 -73,39 -17,27 -26,66 -26,116 0,51 9,89 26,114 18,25 43,38 75,38z"/>
  <path id="4" class="fil1" d="M6713 2943l51 0 -251 673 -42 0 -250 -673 50 0 169 458c26,69 43,121 52,155 6,-23 18,-58 36,-107l185 -506z"/>
  <path id="5" class="fil1" d="M7032 3625c-73,0 -130,-22 -171,-67 -40,-45 -61,-108 -61,-188 0,-80 20,-144 59,-192 40,-48 93,-72 159,-72 59,0 106,20 140,61 34,41 51,97 51,167l0 37 -361 0c1,69 17,121 48,158 32,36 77,55 136,55 28,0 53,-2 75,-6 21,-4 49,-13 82,-26l0 41c-28,13 -54,21 -78,25 -24,5 -51,7 -79,7zm-14 -480c-48,0 -87,16 -116,48 -29,32 -46,78 -51,138l309 0c0,-58 -12,-104 -37,-136 -25,-33 -60,-50 -105,-50z"/>
  <path id="6" class="fil1" d="M7543 3106c22,0 44,2 69,6l-9 44c-21,-5 -43,-8 -65,-8 -43,0 -78,18 -105,55 -27,36 -41,81 -41,137l0 276 -45 0 0 -501 38 0 5 91 3 0c21,-37 43,-63 66,-78 23,-15 51,-22 84,-22z"/>
  <path id="7" class="fil1" d="M8024 3486c0,44 -17,79 -51,103 -34,24 -83,36 -145,36 -67,0 -120,-10 -160,-31l0 -49c51,25 104,38 160,38 49,0 87,-9 112,-25 26,-16 39,-38 39,-66 0,-25 -11,-46 -31,-63 -20,-17 -54,-34 -101,-51 -50,-18 -85,-33 -105,-46 -20,-14 -36,-28 -46,-45 -10,-16 -15,-36 -15,-60 0,-37 15,-67 47,-89 31,-21 75,-32 132,-32 54,0 105,10 154,30l-17 42c-50,-21 -95,-31 -137,-31 -41,0 -73,7 -97,21 -24,13 -36,32 -36,56 0,26 9,47 28,62 18,16 55,33 109,53 45,16 77,31 98,44 21,13 36,28 46,44 11,17 16,36 16,59z"/>
  <path id="8" class="fil1" d="M8198 3616l-46 0 0 -501 46 0 0 501zm-52 -640c0,-29 10,-44 29,-44 9,0 17,4 22,12 6,8 8,18 8,32 0,14 -2,25 -8,33 -5,8 -13,12 -22,12 -19,0 -29,-15 -29,-45z"/>
  <path id="9" class="fil1" d="M8779 3365c0,82 -20,145 -59,191 -40,46 -94,69 -164,69 -44,0 -83,-10 -116,-32 -33,-21 -59,-51 -77,-91 -18,-40 -27,-85 -27,-137 0,-82 20,-145 60,-191 39,-45 94,-68 163,-68 68,0 122,23 162,69 39,46 58,110 58,190zm-395 0c0,69 15,122 46,161 30,38 72,58 128,58 55,0 98,-20 128,-58 30,-39 45,-92 45,-161 0,-69 -15,-123 -46,-161 -30,-38 -73,-57 -128,-57 -55,0 -98,19 -128,57 -30,38 -45,92 -45,161z"/>
  <path id="10" class="fil1" d="M9267 3616l0 -325c0,-50 -11,-87 -32,-110 -21,-22 -54,-34 -99,-34 -60,0 -103,15 -131,46 -28,30 -42,79 -42,147l0 276 -45 0 0 -501 38 0 9 69 3 0c32,-52 90,-78 173,-78 114,0 171,61 171,182l0 328 -45 0z"/>
 </g>
</svg>
